{
  "raw": {
    "routes": "routes.json",
    "elevation": [
      "srtm_39_04.zip",
      "srtm_39_05.zip",
      "srtm_40_04.zip",
      "srtm_40_05.zip",
      "srtm_41_04.zip",
      "srtm_41_05.zip"
    ]
  },
  "parsed": {
    "routes": "routes.csv"
  },
  "merged": {
    "elevation": "elevation.tif",
    "routes": "routes.csv"
  },
	"model": {
		"elevation_plot": "route_map.jpg",
		"model": "mdl.txt",
		"model_plot": "mdl_plot.jpg"
	}
}
